SysId                                                  DownVal     UpVal            SysType      Constr
ATLAS_EG_RESOLUTION_ALL                                1.00243     0.999664               1           1
ATLAS_EG_SCALE_ALLCORR                                 0.99744     1.00591                1           1
ATLAS_EG_SCALE_E4SCINTILLATOR                          1.00207     1.00177                1           1
ATLAS_EG_SCALE_LARCALIB_EXTRA2015PRE                   1.00077     1.00258                1           1
ATLAS_EG_SCALE_LARTEMPERATURE_EXTRA2015PRE             1.00175     1.00175                1           1
ATLAS_EG_SCALE_LARTEMPERATURE_EXTRA2016PRE             1.00175     1.00175                1           1
ATLAS_EL_EFF_ID_CorrUncertaintyNP0                     1           1                      1           1
ATLAS_EL_EFF_ID_CorrUncertaintyNP1                     1           1                      1           1
ATLAS_EL_EFF_ID_CorrUncertaintyNP10                    0.999456    1.00054                1           1
ATLAS_EL_EFF_ID_CorrUncertaintyNP11                    0.997123    1.00289                1           1
ATLAS_EL_EFF_ID_CorrUncertaintyNP12                    1.00492     0.995108               1           1
ATLAS_EL_EFF_ID_CorrUncertaintyNP13                    0.994243    1.0058                 1           1
ATLAS_EL_EFF_ID_CorrUncertaintyNP14                    0.990538    1.00961                1           1
ATLAS_EL_EFF_ID_CorrUncertaintyNP2                     1.00003     0.999971               1           1
ATLAS_EL_EFF_ID_CorrUncertaintyNP3                     0.999345    1.00066                1           1
ATLAS_EL_EFF_ID_CorrUncertaintyNP4                     1.00002     0.999978               1           1
ATLAS_EL_EFF_ID_CorrUncertaintyNP5                     1.00084     0.999162               1           1
ATLAS_EL_EFF_ID_CorrUncertaintyNP6                     0.99912     1.00088                1           1
ATLAS_EL_EFF_ID_CorrUncertaintyNP7                     1.0019      0.998103               1           1
ATLAS_EL_EFF_ID_CorrUncertaintyNP8                     0.999045    1.00096                1           1
ATLAS_EL_EFF_ID_CorrUncertaintyNP9                     1.00284     0.997176               1           1
ATLAS_EL_EFF_ID_SIMPLIFIED_UncorrUncertaintyNP0        1           1                      1           1
ATLAS_EL_EFF_ID_SIMPLIFIED_UncorrUncertaintyNP1        0.995677    1.00432                1           1
ATLAS_EL_EFF_ID_SIMPLIFIED_UncorrUncertaintyNP10       0.999185    1.00081                1           1
ATLAS_EL_EFF_ID_SIMPLIFIED_UncorrUncertaintyNP11       0.998305    1.0017                 1           1
ATLAS_EL_EFF_ID_SIMPLIFIED_UncorrUncertaintyNP12       0.999861    1.00014                1           1
ATLAS_EL_EFF_ID_SIMPLIFIED_UncorrUncertaintyNP13       0.999881    1.00012                1           1
ATLAS_EL_EFF_ID_SIMPLIFIED_UncorrUncertaintyNP14       0.999972    1.00003                1           1
ATLAS_EL_EFF_ID_SIMPLIFIED_UncorrUncertaintyNP15       0.999992    1.00001                1           1
ATLAS_EL_EFF_ID_SIMPLIFIED_UncorrUncertaintyNP16       1           1                      1           1
ATLAS_EL_EFF_ID_SIMPLIFIED_UncorrUncertaintyNP17       1           1                      1           1
ATLAS_EL_EFF_ID_SIMPLIFIED_UncorrUncertaintyNP2        0.991305    1.00879                1           1
ATLAS_EL_EFF_ID_SIMPLIFIED_UncorrUncertaintyNP3        0.998904    1.0011                 1           1
ATLAS_EL_EFF_ID_SIMPLIFIED_UncorrUncertaintyNP4        0.999334    1.00067                1           1
ATLAS_EL_EFF_ID_SIMPLIFIED_UncorrUncertaintyNP5        0.999602    1.0004                 1           1
ATLAS_EL_EFF_ID_SIMPLIFIED_UncorrUncertaintyNP6        0.999256    1.00074                1           1
ATLAS_EL_EFF_ID_SIMPLIFIED_UncorrUncertaintyNP7        0.999903    1.0001                 1           1
ATLAS_EL_EFF_ID_SIMPLIFIED_UncorrUncertaintyNP8        0.999937    1.00006                1           1
ATLAS_EL_EFF_ID_SIMPLIFIED_UncorrUncertaintyNP9        1           1                      1           1
ATLAS_EL_EFF_ISO_TOTAL_1NPCOR_PLUS_UNCOR               0.991435    1.00864                1           1
ATLAS_EL_EFF_RECO_TOTAL_1NPCOR_PLUS_UNCOR              0.984666    1.01564                1           1
ATLAS_FT_EFF_Eigen_B_0                                 0.999975    1.00002                1           1
ATLAS_FT_EFF_Eigen_B_1                                 1.00002     0.999983               1           1
ATLAS_FT_EFF_Eigen_B_2                                 0.999994    1.00001                1           1
ATLAS_FT_EFF_Eigen_C_0                                 1.00051     0.999487               1           1
ATLAS_FT_EFF_Eigen_C_1                                 1.00004     0.99996                1           1
ATLAS_FT_EFF_Eigen_C_2                                 0.999937    1.00006                1           1
ATLAS_FT_EFF_Eigen_C_3                                 1           0.999996               1           1
ATLAS_FT_EFF_Eigen_Light_0                             1.00008     0.999916               1           1
ATLAS_FT_EFF_Eigen_Light_1                             0.999976    1.00002                1           1
ATLAS_FT_EFF_Eigen_Light_2                             0.999991    1.00001                1           1
ATLAS_FT_EFF_Eigen_Light_3                             0.999947    1.00005                1           1
ATLAS_FT_EFF_Eigen_Light_4                             0.999973    1.00003                1           1
ATLAS_FT_EFF_extrapolation                             1.00001     0.999995               1           1
ATLAS_FT_EFF_extrapolation_from_charm                  1           0.999999               1           1
ATLAS_HOEW                                             1.00602     0.993977               1           1
ATLAS_HOEW_QCD                                         1.00676     0.993242               1           1
ATLAS_HOQCD_SCALE                                      1           1                      1           1
ATLAS_JER_SINGLE_NP                                    0.998697    1.0013                 1           1
ATLAS_JES_EffectiveNP_1                                1.00177     1.0017                 1           1
ATLAS_JES_EffectiveNP_2                                1.00175     1.00176                1           1
ATLAS_JES_EffectiveNP_3                                1.00175     1.00176                1           1
ATLAS_JES_EffectiveNP_4                                1.00175     1.00176                1           1
ATLAS_JES_EffectiveNP_5                                1.00175     1.00176                1           1
ATLAS_JES_EffectiveNP_6                                1.00175     1.00176                1           1
ATLAS_JES_EffectiveNP_7                                1.00175     1.00175                1           1
ATLAS_JES_EtaInter_Model                               1.00181     1.0017                 1           1
ATLAS_JES_EtaInter_NonClosure                          1.00175     1.00176                1           1
ATLAS_JES_EtaInter_Stat                                1.00176     1.00175                1           1
ATLAS_JES_Flavor_Comp                                  1.00188     1.00159                1           1
ATLAS_JES_Flavor_Resp                                  1.00169     1.00178                1           1
ATLAS_JES_HighPt                                       1.00175     1.00175                1           1
ATLAS_JES_PU_OffsetMu                                  1.00175     1.00176                1           1
ATLAS_JES_PU_OffsetNPV                                 1.00176     1.0017                 1           1
ATLAS_JES_PU_PtTerm                                    1.00176     1.00175                1           1
ATLAS_JES_PU_Rho                                       1.00177     1.0017                 1           1
ATLAS_JES_PunchThrough                                 1.00175     1.00175                1           1
ATLAS_JET_BJES_Response                                1.00174     1.00176                1           1
ATLAS_JET_EffectiveNP_8restTerm                        1.00175     1.00175                1           1
ATLAS_JVT                                              1.00175     1.00174                1           1
ATLAS_MUON_EFF_STAT                                    0.9977      1.0023                 1           1
ATLAS_MUON_EFF_STAT_LOWPT                              0.997806    1.0022                 1           1
ATLAS_MUON_EFF_SYS                                     0.988441    1.01169                1           1
ATLAS_MUON_EFF_SYS_LOWPT                               0.99481     1.0052                 1           1
ATLAS_MUON_ID                                          1.00216     1.00002                1           1
ATLAS_MUON_ISO_STAT                                    0.994483    1.00554                1           1
ATLAS_MUON_ISO_SYS                                     0.988088    1.012                  1           1
ATLAS_MUON_MS                                          1.00021     1.00089                1           1
ATLAS_MUON_SAGITTA_RESBIAS                             1.0018      1.00089                1           1
ATLAS_MUON_SAGITTA_RHO                                 1.00205     1.00199                1           1
ATLAS_MUON_SCALE                                       1.0027      1.00102                1           1
ATLAS_MUON_TTVA_STAT                                   0.994811    1.00521                1           1
ATLAS_MUON_TTVA_SYS                                    0.9974      1.00261                1           1
ATLAS_PRW_DATASF                                       1.013       0.987351               1           1
ATLAS_pdf_qqZZ                                         0.978000    1.022000               1           1
ATLAS_scale_qqZZ                                       0.961000    1.045000               1           1
ATLAS_ShowerQSF_qqZZ                                   1.014000    1.006000               1           1
ATLAS_ShowerCKKW_qqZZ                                  0.985000    1.010000               1           1
ATLAS_ShowerCSSKIN_qqZZ                                0.990000    1.010000               1           1