SysId                                                  DownVal     UpVal            SysType      Constr
ATLAS_EG_RESOLUTION_ALL                                1.0206      0.998086               1           1
ATLAS_EG_SCALE_ALLCORR                                 0.997587    1.01272                1           1
ATLAS_EG_SCALE_E4SCINTILLATOR                          1           1                      1           1
ATLAS_EG_SCALE_LARCALIB_EXTRA2015PRE                   0.991733    0.999961               1           1
ATLAS_EG_SCALE_LARTEMPERATURE_EXTRA2015PRE             1           1                      1           1
ATLAS_EG_SCALE_LARTEMPERATURE_EXTRA2016PRE             1           1                      1           1
ATLAS_EL_EFF_ID_CorrUncertaintyNP0                     1           1                      1           1
ATLAS_EL_EFF_ID_CorrUncertaintyNP1                     1           1                      1           1
ATLAS_EL_EFF_ID_CorrUncertaintyNP10                    0.999824    1.00018                1           1
ATLAS_EL_EFF_ID_CorrUncertaintyNP11                    0.996649    1.00338                1           1
ATLAS_EL_EFF_ID_CorrUncertaintyNP12                    1.00531     0.994724               1           1
ATLAS_EL_EFF_ID_CorrUncertaintyNP13                    0.993314    1.00673                1           1
ATLAS_EL_EFF_ID_CorrUncertaintyNP14                    0.989615    1.01054                1           1
ATLAS_EL_EFF_ID_CorrUncertaintyNP2                     0.999939    1.00006                1           1
ATLAS_EL_EFF_ID_CorrUncertaintyNP3                     0.999543    1.00046                1           1
ATLAS_EL_EFF_ID_CorrUncertaintyNP4                     0.999942    1.00006                1           1
ATLAS_EL_EFF_ID_CorrUncertaintyNP5                     1.00058     0.999424               1           1
ATLAS_EL_EFF_ID_CorrUncertaintyNP6                     0.999506    1.00049                1           1
ATLAS_EL_EFF_ID_CorrUncertaintyNP7                     1.00211     0.997898               1           1
ATLAS_EL_EFF_ID_CorrUncertaintyNP8                     0.999273    1.00073                1           1
ATLAS_EL_EFF_ID_CorrUncertaintyNP9                     1.00308     0.996933               1           1
ATLAS_EL_EFF_ID_SIMPLIFIED_UncorrUncertaintyNP0        1           1                      1           1
ATLAS_EL_EFF_ID_SIMPLIFIED_UncorrUncertaintyNP1        0.997384    1.00262                1           1
ATLAS_EL_EFF_ID_SIMPLIFIED_UncorrUncertaintyNP10       0.997118    1.00288                1           1
ATLAS_EL_EFF_ID_SIMPLIFIED_UncorrUncertaintyNP11       0.995609    1.00436                1           1
ATLAS_EL_EFF_ID_SIMPLIFIED_UncorrUncertaintyNP12       0.999618    1.00038                1           1
ATLAS_EL_EFF_ID_SIMPLIFIED_UncorrUncertaintyNP13       0.999531    1.00047                1           1
ATLAS_EL_EFF_ID_SIMPLIFIED_UncorrUncertaintyNP14       0.999852    1.00015                1           1
ATLAS_EL_EFF_ID_SIMPLIFIED_UncorrUncertaintyNP15       0.999726    1.00027                1           1
ATLAS_EL_EFF_ID_SIMPLIFIED_UncorrUncertaintyNP16       0.999974    1.00003                1           1
ATLAS_EL_EFF_ID_SIMPLIFIED_UncorrUncertaintyNP17       1           1                      1           1
ATLAS_EL_EFF_ID_SIMPLIFIED_UncorrUncertaintyNP2        0.992182    1.00788                1           1
ATLAS_EL_EFF_ID_SIMPLIFIED_UncorrUncertaintyNP3        0.998712    1.00129                1           1
ATLAS_EL_EFF_ID_SIMPLIFIED_UncorrUncertaintyNP4        0.999242    1.00076                1           1
ATLAS_EL_EFF_ID_SIMPLIFIED_UncorrUncertaintyNP5        0.999677    1.00032                1           1
ATLAS_EL_EFF_ID_SIMPLIFIED_UncorrUncertaintyNP6        0.999517    1.00048                1           1
ATLAS_EL_EFF_ID_SIMPLIFIED_UncorrUncertaintyNP7        0.999938    1.00006                1           1
ATLAS_EL_EFF_ID_SIMPLIFIED_UncorrUncertaintyNP8        1           1                      1           1
ATLAS_EL_EFF_ID_SIMPLIFIED_UncorrUncertaintyNP9        1           1                      1           1
ATLAS_EL_EFF_ISO_TOTAL_1NPCOR_PLUS_UNCOR               0.992267    1.00779                1           1
ATLAS_EL_EFF_RECO_TOTAL_1NPCOR_PLUS_UNCOR              0.981572    1.01879                1           1
ATLAS_FT_EFF_Eigen_B_0                                 0.999923    1.00042                1           1
ATLAS_FT_EFF_Eigen_B_1                                 1.00127     0.998788               1           1
ATLAS_FT_EFF_Eigen_B_2                                 0.99866     1.00135                1           1
ATLAS_FT_EFF_Eigen_C_0                                 1.0006      0.999143               1           1
ATLAS_FT_EFF_Eigen_C_1                                 1.00161     0.998352               1           1
ATLAS_FT_EFF_Eigen_C_2                                 0.999004    1.001                  1           1
ATLAS_FT_EFF_Eigen_C_3                                 1.00089     0.999105               1           1
ATLAS_FT_EFF_Eigen_Light_0                             1.00154     0.998454               1           1
ATLAS_FT_EFF_Eigen_Light_1                             0.999848    1.00015                1           1
ATLAS_FT_EFF_Eigen_Light_2                             1.00006     0.999936               1           1
ATLAS_FT_EFF_Eigen_Light_3                             1.00045     0.999554               1           1
ATLAS_FT_EFF_Eigen_Light_4                             0.999943    1.00006                1           1
ATLAS_FT_EFF_extrapolation                             0.999883    1.00012                1           1
ATLAS_FT_EFF_extrapolation_from_charm                  0.999894    1.00011                1           1
ATLAS_HOEW                                             1           1                      1           1
ATLAS_HOEW_QCD                                         1           1                      1           1
ATLAS_HOQCD_SCALE                                      1           1                      1           1
ATLAS_JER_SINGLE_NP                                    0.999846    1.00015                1           1
ATLAS_JES_EffectiveNP_1                                1.00001     1.00051                1           1
ATLAS_JES_EffectiveNP_2                                1.00016     1.00008                1           1
ATLAS_JES_EffectiveNP_3                                1.00003     0.999996               1           1
ATLAS_JES_EffectiveNP_4                                1           0.99997                1           1
ATLAS_JES_EffectiveNP_5                                0.999989    1.00001                1           1
ATLAS_JES_EffectiveNP_6                                1.00002     0.999993               1           1
ATLAS_JES_EffectiveNP_7                                1.00001     1.00003                1           1
ATLAS_JES_EtaInter_Model                               1.00008     1.00009                1           1
ATLAS_JES_EtaInter_NonClosure                          1.0002      1.00009                1           1
ATLAS_JES_EtaInter_Stat                                1.0001      1.00018                1           1
ATLAS_JES_Flavor_Comp                                  1.00103     0.999653               1           1
ATLAS_JES_Flavor_Resp                                  1.0001      1.00037                1           1
ATLAS_JES_HighPt                                       1           1                      1           1
ATLAS_JES_PU_OffsetMu                                  0.999998    1.00002                1           1
ATLAS_JES_PU_OffsetNPV                                 1.00007     1.00032                1           1
ATLAS_JES_PU_PtTerm                                    1.00003     0.99993                1           1
ATLAS_JES_PU_Rho                                       1.00034     1.0008                 1           1
ATLAS_JES_PunchThrough                                 0.999991    1                      1           1
ATLAS_JET_BJES_Response                                0.999693    1.00033                1           1
ATLAS_JET_EffectiveNP_8restTerm                        1.00001     1                      1           1
ATLAS_JVT                                              0.999901    1.00013                1           1
ATLAS_MUON_EFF_STAT                                    0.997209    1.0028                 1           1
ATLAS_MUON_EFF_STAT_LOWPT                              0.998111    1.00189                1           1
ATLAS_MUON_EFF_SYS                                     0.986172    1.01402                1           1
ATLAS_MUON_EFF_SYS_LOWPT                               0.996424    1.00359                1           1
ATLAS_MUON_ID                                          1.0027      1.00729                1           1
ATLAS_MUON_ISO_STAT                                    0.995914    1.0041                 1           1
ATLAS_MUON_ISO_SYS                                     0.991119    1.00895                1           1
ATLAS_MUON_MS                                          1.0085      0.994523               1           1
ATLAS_MUON_SAGITTA_RESBIAS                             0.997756    1.00941                1           1
ATLAS_MUON_SAGITTA_RHO                                 0.985081    0.987465               1           1
ATLAS_MUON_SCALE                                       1.00638     0.992773               1           1
ATLAS_MUON_TTVA_STAT                                   0.994629    1.0054                 1           1
ATLAS_MUON_TTVA_SYS                                    0.997482    1.00252                1           1
ATLAS_PRW_DATASF                                       1.00901     0.989408               1           1
ATLAS_pdf_sig_gg                                       1.000000    1.000000               1           1
ATLAS_pdf_sig_qq                                       1.000000    1.000000               1           1
ATLAS_scale_sig_ttH                                    1.000000    1.000000               1           1
ATLAS_HiggsMassVariation                               0.979989    1.020011               1           1
ATLAS_SignalComposition_ggH                            1.15754     0.889398               1           1
ATLAS_SignalComposition_VBF                            1.0056      1.00621                1           1
ATLAS_SignalComposition_WH                             1.00516     1.01184                1           1
ATLAS_SignalComposition_ZH                             1.0035      1.00833                1           1
ATLAS_SignalComposition_ttH                            1           4.0179                 1           1
ATLAS_SignalComposition_bbH                            1.00269     1.00914                1           1
